{
  "size": 0,
  "aggs": {
    "group_by_sentiment": {
      "range": {
        "field": "sentiment",
        "ranges": [
          {
            "from": -1000,
            "to": -701
          },
          {
            "from": -700,
            "to": -401
          },
          {
            "from": -400,
            "to": -101
          },
          {
            "from": -100,
            "to": 100
          },
          {
            "from": 101,
            "to": 400
          },
          {
            "from": 401,
            "to": 700
          },
          {
            "from": 701,
            "to": 1000
          }
        ]
      }
    }
  }
}