{
  "size": 0,
  "aggs" : {
    "sentiment_histogram": {
      "date_histogram": {
        "field": "date",
        "interval": "10m"
      },
      "aggs": {
        "average": {
          "avg": {
            "field": "sentiment"
          }
        }
      }
    }
  }
}